{
  "db": "PostgreSQL",
  "4bff2b74666e972fb5499d25fc80df4c0099caa725460e690e047a46dbf6df17": {
    "query": "INSERT INTO reaction_roles VALUES ($1, $2, $3)",
    "describe": {
      "columns": [],
      "parameters": {
        "Left": [
          "Int8",
          "VarcharArray",
          "Int8Array"
        ]
      },
      "nullable": []
    }
  },
  "71a7203e0bc58c88d60671da9eff4912a1e62fd7a0ab35e73c8be604887352ce": {
    "query": "SELECT * FROM reaction_roles WHERE message_id = $1",
    "describe": {
      "columns": [
        {
          "ordinal": 0,
          "name": "message_id",
          "type_info": "Int8"
        },
        {
          "ordinal": 1,
          "name": "emojis",
          "type_info": "VarcharArray"
        },
        {
          "ordinal": 2,
          "name": "role_ids",
          "type_info": "Int8Array"
        }
      ],
      "parameters": {
        "Left": [
          "Int8"
        ]
      },
      "nullable": [
        false,
        false,
        false
      ]
    }
  }
}